\relax 
\providecommand\HyperFirstAtBeginDocument{\AtBeginDocument}
\HyperFirstAtBeginDocument{\ifx\hyper@anchor\@undefined
\global\let\oldcontentsline\contentsline
\gdef\contentsline#1#2#3#4{\oldcontentsline{#1}{#2}{#3}}
\global\let\oldnewlabel\newlabel
\gdef\newlabel#1#2{\newlabelxx{#1}#2}
\gdef\newlabelxx#1#2#3#4#5#6{\oldnewlabel{#1}{{#2}{#3}}}
\AtEndDocument{\ifx\hyper@anchor\@undefined
\let\contentsline\oldcontentsline
\let\newlabel\oldnewlabel
\fi}
\fi}
\global\let\hyper@last\relax 
\gdef\HyperFirstAtBeginDocument#1{#1}
\providecommand\HyField@AuxAddToFields[1]{}
\@input{data/chap01.aux}
\@input{data/chap02.aux}
\@input{data/chap03.aux}
\@input{data/chap04.aux}
\@input{data/chap05.aux}
\@input{data/chap06.aux}
\bibstyle{thubib}
\bibdata{ref/refs}
\bibcite{sun2010asymptotic}{{1}{}{{}}{{}}}
\bibcite{glynn1996importance}{{2}{}{{}}{{}}}
\bibcite{glasserman2000variance}{{3}{}{{}}{{}}}
\bibcite{bahadur1966note}{{4}{}{{}}{{}}}
\bibcite{rockafellar2000optimization}{{5}{}{{}}{{}}}
\bibcite{fishburn1980stochastic}{{6}{}{{}}{{}}}
\bibcite{artzner1999coherent}{{7}{}{{}}{{}}}
\bibcite{wang1997axiomatic}{{8}{}{{}}{{}}}
\bibcite{trindade2007financial}{{9}{}{{}}{{}}}
\bibcite{glasserman1999importance}{{10}{}{{}}{{}}}
\bibcite{bucklew1990large}{{11}{}{{}}{{}}}
\bibcite{glasserman2002portfolio}{{12}{}{{}}{{}}}
\bibcite{riskmetrics1996riskmetrics}{{13}{}{{}}{{}}}
\bibcite{anderson1958introduction}{{14}{}{{}}{{}}}
\bibcite{tong1990multivariate}{{15}{}{{}}{{}}}
\bibcite{nelsen1999introduction}{{16}{}{{}}{{}}}
