\relax 
\citation{sun2010asymptotic}
\citation{sun2010asymptotic}
\citation{rockafellar2000optimization}
\citation{rockafellar2000optimization}
\@writefile{toc}{\contentsline {chapter}{\numberline {第\nobreakspace  {}2\nobreakspace  {}章}风险管理指标}{3}{chapter.2}}
\@writefile{toc}{\contentsline {section}{\numberline {2.1}VaR与CVaR的定义}{3}{section.2.1}}
\@writefile{loe}{\contentsline {equation}{\numberline {2-1}}{3}{equation.2.1.1}}
\@writefile{loe}{\contentsline {equation}{\numberline {2-2}}{3}{equation.2.1.2}}
\newlabel{chap2:1}{{2-2}{3}{VaR与CVaR的定义\relax }{equation.2.1.2}{}}
\citation{fishburn1980stochastic}
\citation{fishburn1980stochastic}
\@writefile{toc}{\contentsline {section}{\numberline {2.2}VaR与CVaR的性质}{4}{section.2.2}}
\@writefile{thm}{\contentsline {proposition}{{命题}{2.{1}}{}}{4}{proposition.2.1}}
\@writefile{thm}{\contentsline {definition}{{定义}{2.{1}}{}}{4}{definition.2.1}}
\@writefile{thm}{\contentsline {definition}{{定义}{2.{2}}{}}{4}{definition.2.2}}
\@writefile{thm}{\contentsline {definition}{{定义}{2.{3}}{}}{4}{definition.2.3}}
\citation{artzner1999coherent}
\citation{artzner1999coherent}
\@writefile{thm}{\contentsline {proposition}{{命题}{2.{2}}{}}{5}{proposition.2.2}}
\@writefile{thm}{\contentsline {proposition}{{命题}{2.{3}}{}}{5}{proposition.2.3}}
\@writefile{thm}{\contentsline {proposition}{{命题}{2.{4}}{}}{5}{proposition.2.4}}
\@writefile{thm}{\contentsline {proposition}{{命题}{2.{5}}{}}{5}{proposition.2.5}}
\@writefile{thm}{\contentsline {proposition}{{命题}{2.{6}}{}}{5}{proposition.2.6}}
\@writefile{thm}{\contentsline {proposition}{{命题}{2.{7}}{}}{5}{proposition.2.7}}
\citation{wang1997axiomatic}
\citation{wang1997axiomatic}
\@writefile{thm}{\contentsline {definition}{{定义}{2.{4}}{}}{6}{definition.2.4}}
\@writefile{thm}{\contentsline {proposition}{{命题}{2.{8}}{}}{6}{proposition.2.8}}
\@writefile{thm}{\contentsline {proposition}{{命题}{2.{9}}{}}{6}{proposition.2.9}}
\@writefile{thm}{\contentsline {proposition}{{命题}{2.{10}}{}}{6}{proposition.2.10}}
\@writefile{thm}{\contentsline {proposition}{{命题}{2.{11}}{}}{6}{proposition.2.11}}
\@writefile{thm}{\contentsline {proposition}{{命题}{2.{12}}{}}{6}{proposition.2.12}}
\@writefile{toc}{\contentsline {section}{\numberline {2.3}VaR与CVaR的关系}{6}{section.2.3}}
\@writefile{thm}{\contentsline {proposition}{{命题}{2.{13}}{}}{6}{proposition.2.13}}
\@writefile{thm}{\contentsline {proposition}{{命题}{2.{14}}{}}{7}{proposition.2.14}}
\@writefile{thm}{\contentsline {proposition}{{命题}{2.{15}}{}}{7}{proposition.2.15}}
\@setckpt{data/chap02}{
\setcounter{page}{8}
\setcounter{equation}{2}
\setcounter{enumi}{0}
\setcounter{enumii}{0}
\setcounter{enumiii}{0}
\setcounter{enumiv}{0}
\setcounter{footnote}{0}
\setcounter{mpfootnote}{0}
\setcounter{part}{0}
\setcounter{chapter}{2}
\setcounter{section}{3}
\setcounter{subsection}{0}
\setcounter{subsubsection}{0}
\setcounter{paragraph}{0}
\setcounter{subparagraph}{0}
\setcounter{figure}{0}
\setcounter{table}{0}
\setcounter{parentequation}{0}
\setcounter{ContinuedFloat}{0}
\setcounter{KVtest}{2}
\setcounter{subfigure}{0}
\setcounter{subfigure@save}{0}
\setcounter{lofdepth}{1}
\setcounter{subtable}{0}
\setcounter{subtable@save}{0}
\setcounter{lotdepth}{1}
\setcounter{endNonectr}{44}
\setcounter{currNonectr}{0}
\setcounter{LT@tables}{0}
\setcounter{LT@chunks}{0}
\setcounter{NAT@ctr}{0}
\setcounter{Item}{0}
\setcounter{Hfootnote}{0}
\setcounter{bookmark@seq@number}{10}
\setcounter{pcabs@footnote}{0}
\setcounter{thu@bookmark}{4}
\setcounter{currproofctr}{0}
\setcounter{endproofctr}{0}
\setcounter{proof}{0}
\setcounter{currassumptionctr}{0}
\setcounter{endassumptionctr}{0}
\setcounter{assumption}{0}
\setcounter{currdefinitionctr}{4}
\setcounter{enddefinitionctr}{0}
\setcounter{definition}{4}
\setcounter{currpropositionctr}{15}
\setcounter{endpropositionctr}{0}
\setcounter{proposition}{15}
\setcounter{currlemmactr}{0}
\setcounter{endlemmactr}{0}
\setcounter{lemma}{0}
\setcounter{currtheoremctr}{0}
\setcounter{endtheoremctr}{0}
\setcounter{theorem}{0}
\setcounter{curraxiomctr}{0}
\setcounter{endaxiomctr}{0}
\setcounter{axiom}{0}
\setcounter{currcorollaryctr}{0}
\setcounter{endcorollaryctr}{0}
\setcounter{corollary}{0}
\setcounter{currexercisectr}{0}
\setcounter{endexercisectr}{0}
\setcounter{exercise}{0}
\setcounter{currexamplectr}{0}
\setcounter{endexamplectr}{0}
\setcounter{example}{0}
\setcounter{currremarkctr}{0}
\setcounter{endremarkctr}{0}
\setcounter{remark}{0}
\setcounter{currproblemctr}{0}
\setcounter{endproblemctr}{0}
\setcounter{problem}{0}
\setcounter{currconjecturectr}{0}
\setcounter{endconjecturectr}{0}
\setcounter{conjecture}{0}
\setcounter{float@type}{4}
\setcounter{section@level}{1}
}
