\relax 
\citation{trindade2007financial}
\citation{trindade2007financial}
\@writefile{toc}{\contentsline {chapter}{\numberline {第\nobreakspace  {}3\nobreakspace  {}章}VaR与CVaR的随机模拟}{8}{chapter.3}}
\@writefile{toc}{\contentsline {section}{\numberline {3.1}蒙特卡洛模拟}{8}{section.3.1}}
\@writefile{toc}{\contentsline {subsection}{\numberline {3.1.1}估计量的表示}{8}{subsection.3.1.1}}
\citation{bahadur1966note}
\citation{bahadur1966note}
\citation{bahadur1966note}
\citation{bahadur1966note}
\@writefile{toc}{\contentsline {subsection}{\numberline {3.1.2}估计量的渐进性}{9}{subsection.3.1.2}}
\@writefile{thm}{\contentsline {proposition}{{命题}{3.{1}}{}}{9}{proposition.3.1}}
\@writefile{toc}{\contentsline {section}{\numberline {3.2}重要性抽样}{10}{section.3.2}}
\@writefile{toc}{\contentsline {subsection}{\numberline {3.2.1}估计量表示}{11}{subsection.3.2.1}}
\@writefile{thm}{\contentsline {assumption}{{假设}{3.{1}}{}}{11}{assumption.3.1}}
\newlabel{chap3:assumption1}{{3.{1}}{11}{估计量表示\relax }{assumption.3.1}{}}
\citation{bahadur1966note}
\citation{bahadur1966note}
\@writefile{thm}{\contentsline {assumption}{{假设}{3.{2}}{}}{12}{assumption.3.2}}
\newlabel{chap3:assumption2}{{3.{2}}{12}{估计量表示\relax }{assumption.3.2}{}}
\@writefile{toc}{\contentsline {subsection}{\numberline {3.2.2}估计量的渐进性}{12}{subsection.3.2.2}}
\@writefile{thm}{\contentsline {lemma}{{引理}{3.{1}}{}}{13}{lemma.3.1}}
\@writefile{thm}{\contentsline {theorem}{{定理}{3.{1}}{}}{13}{theorem.3.1}}
\@writefile{thm}{\contentsline {corollary}{{推论}{3.{1}}{}}{14}{corollary.3.1}}
\@writefile{thm}{\contentsline {remark}{{注释}{3.{1}}{}}{14}{remark.3.1}}
\@writefile{thm}{\contentsline {lemma}{{引理}{3.{2}}{}}{15}{lemma.3.2}}
\@writefile{thm}{\contentsline {theorem}{{定理}{3.{2}}{}}{15}{theorem.3.2}}
\@writefile{thm}{\contentsline {corollary}{{推论}{3.{2}}{}}{15}{corollary.3.2}}
\@writefile{thm}{\contentsline {corollary}{{推论}{3.{3}}{}}{16}{corollary.3.3}}
\@writefile{thm}{\contentsline {remark}{{注释}{3.{2}}{}}{16}{remark.3.2}}
\@setckpt{data/chap03}{
\setcounter{page}{17}
\setcounter{equation}{0}
\setcounter{enumi}{0}
\setcounter{enumii}{0}
\setcounter{enumiii}{0}
\setcounter{enumiv}{0}
\setcounter{footnote}{0}
\setcounter{mpfootnote}{0}
\setcounter{part}{0}
\setcounter{chapter}{3}
\setcounter{section}{2}
\setcounter{subsection}{2}
\setcounter{subsubsection}{0}
\setcounter{paragraph}{0}
\setcounter{subparagraph}{0}
\setcounter{figure}{0}
\setcounter{table}{0}
\setcounter{parentequation}{0}
\setcounter{ContinuedFloat}{0}
\setcounter{KVtest}{2}
\setcounter{subfigure}{0}
\setcounter{subfigure@save}{0}
\setcounter{lofdepth}{1}
\setcounter{subtable}{0}
\setcounter{subtable@save}{0}
\setcounter{lotdepth}{1}
\setcounter{endNonectr}{58}
\setcounter{currNonectr}{0}
\setcounter{LT@tables}{0}
\setcounter{LT@chunks}{0}
\setcounter{NAT@ctr}{0}
\setcounter{Item}{0}
\setcounter{Hfootnote}{0}
\setcounter{bookmark@seq@number}{17}
\setcounter{pcabs@footnote}{0}
\setcounter{thu@bookmark}{4}
\setcounter{currproofctr}{0}
\setcounter{endproofctr}{0}
\setcounter{proof}{0}
\setcounter{currassumptionctr}{2}
\setcounter{endassumptionctr}{0}
\setcounter{assumption}{2}
\setcounter{currdefinitionctr}{4}
\setcounter{enddefinitionctr}{0}
\setcounter{definition}{0}
\setcounter{currpropositionctr}{16}
\setcounter{endpropositionctr}{0}
\setcounter{proposition}{1}
\setcounter{currlemmactr}{2}
\setcounter{endlemmactr}{0}
\setcounter{lemma}{2}
\setcounter{currtheoremctr}{2}
\setcounter{endtheoremctr}{0}
\setcounter{theorem}{2}
\setcounter{curraxiomctr}{0}
\setcounter{endaxiomctr}{0}
\setcounter{axiom}{0}
\setcounter{currcorollaryctr}{3}
\setcounter{endcorollaryctr}{0}
\setcounter{corollary}{3}
\setcounter{currexercisectr}{0}
\setcounter{endexercisectr}{0}
\setcounter{exercise}{0}
\setcounter{currexamplectr}{0}
\setcounter{endexamplectr}{0}
\setcounter{example}{0}
\setcounter{currremarkctr}{2}
\setcounter{endremarkctr}{0}
\setcounter{remark}{2}
\setcounter{currproblemctr}{0}
\setcounter{endproblemctr}{0}
\setcounter{problem}{0}
\setcounter{currconjecturectr}{0}
\setcounter{endconjecturectr}{0}
\setcounter{conjecture}{0}
\setcounter{float@type}{4}
\setcounter{section@level}{2}
}
