\relax 
\citation{glasserman2002portfolio}
\citation{glasserman2002portfolio}
\citation{riskmetrics1996riskmetrics}
\citation{riskmetrics1996riskmetrics}
\citation{anderson1958introduction}
\citation{anderson1958introduction}
\@writefile{toc}{\contentsline {chapter}{\numberline {第\nobreakspace  {}5\nobreakspace  {}章}厚尾模型下的数值模拟}{23}{chapter.5}}
\@writefile{toc}{\contentsline {section}{\numberline {5.1}多元t分布模型}{24}{section.5.1}}
\citation{tong1990multivariate}
\citation{tong1990multivariate}
\citation{nelsen1999introduction}
\citation{nelsen1999introduction}
\@writefile{toc}{\contentsline {section}{\numberline {5.2}Delta-Gamma近似}{25}{section.5.2}}
\@writefile{thm}{\contentsline {theorem}{{定理}{5.{1}}{}}{26}{theorem.5.1}}
\@writefile{toc}{\contentsline {section}{\numberline {5.3}重要性抽样测度的选取}{27}{section.5.3}}
\@writefile{thm}{\contentsline {theorem}{{定理}{5.{2}}{}}{27}{theorem.5.2}}
\citation{glasserman2002portfolio}
\citation{glasserman2002portfolio}
\@writefile{toc}{\contentsline {section}{\numberline {5.4}随机模拟算法}{28}{section.5.4}}
\@writefile{thm}{\contentsline {remark}{{注释}{5.{1}}{}}{28}{remark.5.1}}
\@writefile{toc}{\contentsline {section}{\numberline {5.5}随机模拟结果与结论}{29}{section.5.5}}
\gdef \LT@iv {\LT@entry 
    {2}{61.6856pt}\LT@entry 
    {2}{31.32216pt}\LT@entry 
    {1}{51.46735pt}\LT@entry 
    {2}{42.36339pt}\LT@entry 
    {1}{60.65364pt}\LT@entry 
    {2}{56.16493pt}\LT@entry 
    {1}{0.0pt}}
\gdef \LT@v {\LT@entry 
    {2}{61.6856pt}\LT@entry 
    {2}{31.32216pt}\LT@entry 
    {1}{51.46735pt}\LT@entry 
    {1}{78.24748pt}\LT@entry 
    {1}{60.65364pt}\LT@entry 
    {1}{78.24748pt}\LT@entry 
    {1}{0.0pt}}
\gdef \LT@vi {\LT@entry 
    {2}{61.6856pt}\LT@entry 
    {2}{31.32216pt}\LT@entry 
    {1}{51.46735pt}\LT@entry 
    {1}{78.24748pt}\LT@entry 
    {1}{60.65364pt}\LT@entry 
    {1}{78.24748pt}\LT@entry 
    {1}{0.0pt}}
\@writefile{lot}{\contentsline {table}{\numberline {5.1}{\ignorespaces 普通蒙特卡洛模拟(MC)且不使用重要性抽样}}{30}{table.5.1}}
\@writefile{lot}{\contentsline {table}{\numberline {5.2}{\ignorespaces 普通蒙特卡洛模拟（MC）并使用重要性抽样}}{30}{table.5.2}}
\@writefile{lot}{\contentsline {table}{\numberline {5.3}{\ignorespaces 拟蒙特卡洛模拟（QMC）并使用重要性抽样}}{30}{table.5.3}}
\@setckpt{data/chap05}{
\setcounter{page}{32}
\setcounter{equation}{0}
\setcounter{enumi}{5}
\setcounter{enumii}{2}
\setcounter{enumiii}{0}
\setcounter{enumiv}{0}
\setcounter{footnote}{0}
\setcounter{mpfootnote}{0}
\setcounter{part}{0}
\setcounter{chapter}{5}
\setcounter{section}{5}
\setcounter{subsection}{0}
\setcounter{subsubsection}{0}
\setcounter{paragraph}{0}
\setcounter{subparagraph}{0}
\setcounter{figure}{0}
\setcounter{table}{3}
\setcounter{parentequation}{0}
\setcounter{ContinuedFloat}{0}
\setcounter{KVtest}{2}
\setcounter{subfigure}{0}
\setcounter{subfigure@save}{0}
\setcounter{lofdepth}{1}
\setcounter{subtable}{0}
\setcounter{subtable@save}{0}
\setcounter{lotdepth}{1}
\setcounter{endNonectr}{71}
\setcounter{currNonectr}{0}
\setcounter{LT@tables}{6}
\setcounter{LT@chunks}{2}
\setcounter{NAT@ctr}{0}
\setcounter{Item}{17}
\setcounter{Hfootnote}{0}
\setcounter{bookmark@seq@number}{28}
\setcounter{pcabs@footnote}{0}
\setcounter{thu@bookmark}{4}
\setcounter{currproofctr}{0}
\setcounter{endproofctr}{0}
\setcounter{proof}{0}
\setcounter{currassumptionctr}{2}
\setcounter{endassumptionctr}{0}
\setcounter{assumption}{0}
\setcounter{currdefinitionctr}{4}
\setcounter{enddefinitionctr}{0}
\setcounter{definition}{0}
\setcounter{currpropositionctr}{16}
\setcounter{endpropositionctr}{0}
\setcounter{proposition}{0}
\setcounter{currlemmactr}{2}
\setcounter{endlemmactr}{0}
\setcounter{lemma}{0}
\setcounter{currtheoremctr}{4}
\setcounter{endtheoremctr}{0}
\setcounter{theorem}{2}
\setcounter{curraxiomctr}{0}
\setcounter{endaxiomctr}{0}
\setcounter{axiom}{0}
\setcounter{currcorollaryctr}{3}
\setcounter{endcorollaryctr}{0}
\setcounter{corollary}{0}
\setcounter{currexercisectr}{0}
\setcounter{endexercisectr}{0}
\setcounter{exercise}{0}
\setcounter{currexamplectr}{0}
\setcounter{endexamplectr}{0}
\setcounter{example}{0}
\setcounter{currremarkctr}{3}
\setcounter{endremarkctr}{0}
\setcounter{remark}{1}
\setcounter{currproblemctr}{0}
\setcounter{endproblemctr}{0}
\setcounter{problem}{0}
\setcounter{currconjecturectr}{0}
\setcounter{endconjecturectr}{0}
\setcounter{conjecture}{0}
\setcounter{float@type}{4}
\setcounter{section@level}{1}
}
