\relax 
\citation{glasserman1999importance}
\citation{glasserman1999importance}
\citation{glasserman1999importance}
\citation{glasserman1999importance}
\@writefile{toc}{\contentsline {chapter}{\numberline {第\nobreakspace  {}4\nobreakspace  {}章}多元正态分布模型下的数值模拟}{17}{chapter.4}}
\@writefile{toc}{\contentsline {section}{\numberline {4.1}Delta-Gamma近似}{17}{section.4.1}}
\citation{bucklew1990large}
\citation{bucklew1990large}
\@writefile{toc}{\contentsline {section}{\numberline {4.2}重要性抽样测度的选择}{18}{section.4.2}}
\citation{glasserman1999importance}
\citation{glasserman1999importance}
\citation{glasserman2000variance}
\citation{glasserman2000variance}
\@writefile{toc}{\contentsline {section}{\numberline {4.3}随机模拟算法}{19}{section.4.3}}
\@writefile{toc}{\contentsline {section}{\numberline {4.4}随机模拟结果与结论}{20}{section.4.4}}
\gdef \LT@i {\LT@entry 
    {2}{61.6856pt}\LT@entry 
    {2}{31.32216pt}\LT@entry 
    {1}{51.46735pt}\LT@entry 
    {2}{42.36339pt}\LT@entry 
    {1}{60.65364pt}\LT@entry 
    {2}{45.1237pt}\LT@entry 
    {1}{0.0pt}}
\gdef \LT@ii {\LT@entry 
    {2}{61.6856pt}\LT@entry 
    {2}{31.32216pt}\LT@entry 
    {1}{51.46735pt}\LT@entry 
    {1}{78.24748pt}\LT@entry 
    {1}{60.65364pt}\LT@entry 
    {1}{78.24748pt}\LT@entry 
    {1}{0.0pt}}
\gdef \LT@iii {\LT@entry 
    {2}{61.6856pt}\LT@entry 
    {2}{31.32216pt}\LT@entry 
    {1}{51.46735pt}\LT@entry 
    {1}{78.24748pt}\LT@entry 
    {1}{60.65364pt}\LT@entry 
    {1}{78.24748pt}\LT@entry 
    {1}{0.0pt}}
\@writefile{lot}{\contentsline {table}{\numberline {4.1}{\ignorespaces 普通蒙特卡洛模拟(MC)且不使用重要性抽样}}{21}{table.4.1}}
\@writefile{lot}{\contentsline {table}{\numberline {4.2}{\ignorespaces 普通蒙特卡洛模拟（MC）并使用重要性抽样}}{21}{table.4.2}}
\@writefile{lot}{\contentsline {table}{\numberline {4.3}{\ignorespaces 拟蒙特卡洛模拟（QMC，Sobol点)并使用重要性抽样}}{21}{table.4.3}}
\@setckpt{data/chap04}{
\setcounter{page}{23}
\setcounter{equation}{0}
\setcounter{enumi}{5}
\setcounter{enumii}{2}
\setcounter{enumiii}{0}
\setcounter{enumiv}{0}
\setcounter{footnote}{0}
\setcounter{mpfootnote}{0}
\setcounter{part}{0}
\setcounter{chapter}{4}
\setcounter{section}{4}
\setcounter{subsection}{0}
\setcounter{subsubsection}{0}
\setcounter{paragraph}{0}
\setcounter{subparagraph}{0}
\setcounter{figure}{0}
\setcounter{table}{3}
\setcounter{parentequation}{0}
\setcounter{ContinuedFloat}{0}
\setcounter{KVtest}{2}
\setcounter{subfigure}{0}
\setcounter{subfigure@save}{0}
\setcounter{lofdepth}{1}
\setcounter{subtable}{0}
\setcounter{subtable@save}{0}
\setcounter{lotdepth}{1}
\setcounter{endNonectr}{66}
\setcounter{currNonectr}{0}
\setcounter{LT@tables}{3}
\setcounter{LT@chunks}{2}
\setcounter{NAT@ctr}{0}
\setcounter{Item}{12}
\setcounter{Hfootnote}{0}
\setcounter{bookmark@seq@number}{22}
\setcounter{pcabs@footnote}{0}
\setcounter{thu@bookmark}{4}
\setcounter{currproofctr}{0}
\setcounter{endproofctr}{0}
\setcounter{proof}{0}
\setcounter{currassumptionctr}{2}
\setcounter{endassumptionctr}{0}
\setcounter{assumption}{0}
\setcounter{currdefinitionctr}{4}
\setcounter{enddefinitionctr}{0}
\setcounter{definition}{0}
\setcounter{currpropositionctr}{16}
\setcounter{endpropositionctr}{0}
\setcounter{proposition}{0}
\setcounter{currlemmactr}{2}
\setcounter{endlemmactr}{0}
\setcounter{lemma}{0}
\setcounter{currtheoremctr}{2}
\setcounter{endtheoremctr}{0}
\setcounter{theorem}{0}
\setcounter{curraxiomctr}{0}
\setcounter{endaxiomctr}{0}
\setcounter{axiom}{0}
\setcounter{currcorollaryctr}{3}
\setcounter{endcorollaryctr}{0}
\setcounter{corollary}{0}
\setcounter{currexercisectr}{0}
\setcounter{endexercisectr}{0}
\setcounter{exercise}{0}
\setcounter{currexamplectr}{0}
\setcounter{endexamplectr}{0}
\setcounter{example}{0}
\setcounter{currremarkctr}{2}
\setcounter{endremarkctr}{0}
\setcounter{remark}{0}
\setcounter{currproblemctr}{0}
\setcounter{endproblemctr}{0}
\setcounter{problem}{0}
\setcounter{currconjecturectr}{0}
\setcounter{endconjecturectr}{0}
\setcounter{conjecture}{0}
\setcounter{float@type}{4}
\setcounter{section@level}{1}
}
